id;nom_societe;nom;prenom;mail;adresse;micro_entreprise;instagram
1;middleware;PCI Assistant Synergistic;Tasty Baby Checking;fuchsia Mexican c;Shirt Chips;false;Movies
2;pink Chypre;Small;parsing;Ergonomic tertiary;generation Function-based Rubber;true;Bedfordshire Home Handcrafted
3;synthesizing Rustic;Borders;blue;Buckinghamshire sky b;Lorraine maximize IB;true;Account plug-and-play
4;Gloves;Checking Jewelery Granite;Bedfordshire core;salmon system;synthesizing plum;false;Hat indexing
5;Refined Keyboard innovate;Chine web-readiness convergence;Avon Movies;Buckinghamshire;c Metal;false;Garden Royale
6;copying;Account Virtual;Health synthesizing Focused;withdrawal zero;Intelligent Chair Fish;true;Bacon
7;deposit Kenyan;Concrete process Awesome;Haute-Normandie red;frame Dollar;revolutionary;true;Loan
8;Extended quantifying;Provence-Alpes-Côte Rustic sensor;Agent productivity;bypassing Togo;Aquitaine impactful;true;Soft
9;Fresh b whiteboard;reboot;application ivory b;revolutionary Wooden solid;CSS black Account;false;withdrawal
10;Metal needs-based deposit;Île-de-France Checking;turquoise b;Cotton;deploy Bourgogne bricks-and-clicks;false;redundant Persevering Tuna
