id;date_modifiacation;status
1;2021-12-26;TERMINE
2;2021-12-26;TERMINE
3;2021-12-26;REFUSE
4;2021-12-26;VALIDE
5;2021-12-26;REFUSE
6;2021-12-26;ATTENTE
7;2021-12-26;REFUSE
8;2021-12-26;TERMINE
9;2021-12-26;ATTENTE
10;2021-12-26;REFUSE
