{
  "name": "StatusValidationsHistorique",
  "fields": [
    {
      "fieldName": "dateModifiacation",
      "fieldType": "LocalDate"
    },
    {
      "fieldName": "status",
      "fieldType": "StatusValidations",
      "fieldValues": "VALIDE,REFUSE,ATTENTE,TERMINE"
    }
  ],
  "relationships": [
    {
      "relationshipType": "one-to-many",
      "otherEntityName": "missions",
      "otherEntityRelationshipName": "statusValidationsHistorique",
      "relationshipName": "mission"
    },
    {
      "relationshipType": "one-to-many",
      "otherEntityName": "creatifs",
      "otherEntityRelationshipName": "statusValidationsHistorique",
      "relationshipName": "creatif"
    }
  ],
  "entityTableName": "status_validations_historique",
  "dto": "no",
  "pagination": "no",
  "service": "no",
  "jpaMetamodelFiltering": false,
  "fluentMethods": true,
  "readOnly": false,
  "embedded": false,
  "applications": ["nab_app"],
  "changelogDate": "20211226233900"
}
